EESchema Schematic File Version 4
EELAYER 30 0
EELAYER END
$Descr A3 16535 11693
encoding utf-8
Sheet 1 1
Title ""
Date ""
Rev ""
Comp ""
Comment1 ""
Comment2 ""
Comment3 ""
Comment4 ""
$EndDescr
$Comp
L power:+5V #PWR0101
U 1 1 5E760333
P 3750 1000
F 0 "#PWR0101" H 3750 850 50  0001 C CNN
F 1 "+5V" H 3765 1173 50  0000 C CNN
F 2 "" H 3750 1000 50  0001 C CNN
F 3 "" H 3750 1000 50  0001 C CNN
	1    3750 1000
	1    0    0    -1  
$EndComp
$Comp
L MCU_Module:Arduino_Nano_v3.x A1
U 1 1 5E767AE3
P 3600 2750
F 0 "A1" H 3600 1661 50  0000 C CNN
F 1 "Arduino_Nano_v3.x" H 3600 1570 50  0000 C CNN
F 2 "Module:Arduino_Nano" H 3600 2750 50  0001 C CIN
F 3 "http://www.mouser.com/pdfdocs/Gravitech_Arduino_Nano3_0.pdf" H 3600 2750 50  0001 C CNN
	1    3600 2750
	1    0    0    -1  
$EndComp
Wire Wire Line
	3750 1000 3800 1000
Wire Wire Line
	6400 1000 6400 1150
Wire Wire Line
	6400 1000 8650 1000
Connection ~ 6400 1000
Connection ~ 8650 1000
Wire Wire Line
	3800 1750 3800 1000
Connection ~ 3800 1000
Wire Wire Line
	3700 3750 3700 4150
Wire Wire Line
	8650 1000 8650 1250
Wire Wire Line
	10100 1000 10100 1250
Entry Wire Line
	7350 2150 7450 2250
Entry Wire Line
	7350 2050 7450 2150
Entry Wire Line
	7350 1950 7450 2050
Entry Wire Line
	7350 1850 7450 1950
Entry Wire Line
	7350 1750 7450 1850
Entry Wire Line
	7350 1650 7450 1750
Entry Wire Line
	7350 1550 7450 1650
Entry Wire Line
	7350 2950 7450 3050
Entry Wire Line
	7350 2850 7450 2950
Entry Wire Line
	7350 2750 7450 2850
Entry Wire Line
	7350 2650 7450 2750
Entry Wire Line
	7350 2550 7450 2650
Entry Wire Line
	7350 2450 7450 2550
Entry Wire Line
	7350 2350 7450 2450
Entry Wire Line
	7350 2250 7450 2350
Entry Wire Line
	7950 1950 8050 2050
Entry Wire Line
	7950 1850 8050 1950
Entry Wire Line
	7950 1750 8050 1850
Entry Wire Line
	7950 1650 8050 1750
Entry Wire Line
	7950 1550 8050 1650
Entry Wire Line
	7950 1450 8050 1550
Entry Wire Line
	7950 1350 8050 1450
Entry Wire Line
	7950 2750 8050 2850
Entry Wire Line
	7950 2650 8050 2750
Entry Wire Line
	7950 2550 8050 2650
Entry Wire Line
	7950 2450 8050 2550
Entry Wire Line
	7950 2350 8050 2450
Entry Wire Line
	7950 2250 8050 2350
Entry Wire Line
	7950 2150 8050 2250
Entry Wire Line
	7950 2050 8050 2150
Wire Wire Line
	8650 1000 10100 1000
$Comp
L Memory_EEPROM:28C256 U14
U 1 1 5E76676B
P 10100 2350
F 0 "U14" H 10100 3631 50  0000 C CNN
F 1 "28C256" H 10100 3540 50  0000 C CNN
F 2 "" H 10100 2350 50  0001 C CNN
F 3 "http://ww1.microchip.com/downloads/en/DeviceDoc/doc0006.pdf" H 10100 2350 50  0001 C CNN
	1    10100 2350
	1    0    0    -1  
$EndComp
$Comp
L Memory_EEPROM:28C256 U11
U 1 1 5E763C08
P 8650 2350
F 0 "U11" H 8650 3631 50  0000 C CNN
F 1 "28C256" H 8650 3540 50  0000 C CNN
F 2 "" H 8650 2350 50  0001 C CNN
F 3 "http://ww1.microchip.com/downloads/en/DeviceDoc/doc0006.pdf" H 8650 2350 50  0001 C CNN
	1    8650 2350
	1    0    0    -1  
$EndComp
Entry Wire Line
	9250 2150 9350 2250
Entry Wire Line
	9250 2050 9350 2150
Entry Wire Line
	9250 1950 9350 2050
Entry Wire Line
	9250 1850 9350 1950
Entry Wire Line
	9250 1750 9350 1850
Entry Wire Line
	9250 1650 9350 1750
Entry Wire Line
	9250 1550 9350 1650
Entry Wire Line
	9250 1450 9350 1550
Entry Wire Line
	10700 2150 10800 2250
Entry Wire Line
	10700 2050 10800 2150
Entry Wire Line
	10700 1950 10800 2050
Entry Wire Line
	10700 1850 10800 1950
Entry Wire Line
	10700 1750 10800 1850
Entry Wire Line
	10700 1650 10800 1750
Entry Wire Line
	10700 1550 10800 1650
Entry Wire Line
	10700 1450 10800 1550
Wire Wire Line
	8650 3450 8650 4150
Connection ~ 8650 4150
Wire Wire Line
	8650 4150 10100 4150
Wire Wire Line
	10100 3450 10100 4150
Wire Wire Line
	8250 3050 8050 3050
Wire Wire Line
	8050 3050 8050 3500
Wire Wire Line
	8050 3500 9650 3500
Wire Wire Line
	9650 3500 9650 3050
Wire Wire Line
	9650 3050 9700 3050
Wire Wire Line
	8250 3150 8100 3150
Wire Wire Line
	8100 3450 8650 3450
Wire Wire Line
	9600 3450 9600 3150
Wire Wire Line
	9600 3150 9700 3150
Wire Wire Line
	8100 3150 8100 3450
Connection ~ 8650 3450
Wire Wire Line
	8650 3450 9600 3450
Wire Wire Line
	5700 3150 5450 3150
Wire Wire Line
	5450 3150 5450 4250
Wire Wire Line
	5450 4250 8100 4250
Wire Wire Line
	8100 4250 8100 3450
Connection ~ 8100 3450
Wire Wire Line
	5700 3250 5500 3250
Wire Wire Line
	5500 3250 5500 4350
Wire Wire Line
	5500 4350 8050 4350
Wire Wire Line
	8050 4350 8050 3500
Connection ~ 8050 3500
$Comp
L Switch:SW_Push SW2
U 1 1 5E7A5B16
P 5350 1450
F 0 "SW2" H 5350 1735 50  0000 C CNN
F 1 "SW_Push" H 5350 1644 50  0000 C CNN
F 2 "" H 5350 1650 50  0001 C CNN
F 3 "~" H 5350 1650 50  0001 C CNN
	1    5350 1450
	1    0    0    -1  
$EndComp
$Comp
L power:Earth #PWR0102
U 1 1 5E7A6AAB
P 3700 4150
F 0 "#PWR0102" H 3700 3900 50  0001 C CNN
F 1 "Earth" H 3700 4000 50  0001 C CNN
F 2 "" H 3700 4150 50  0001 C CNN
F 3 "~" H 3700 4150 50  0001 C CNN
	1    3700 4150
	1    0    0    -1  
$EndComp
Connection ~ 3700 4150
$Comp
L power:Earth #PWR0103
U 1 1 5E7A732F
P 5150 1450
F 0 "#PWR0103" H 5150 1200 50  0001 C CNN
F 1 "Earth" H 5150 1300 50  0001 C CNN
F 2 "" H 5150 1450 50  0001 C CNN
F 3 "~" H 5150 1450 50  0001 C CNN
	1    5150 1450
	1    0    0    -1  
$EndComp
Wire Wire Line
	5550 1450 5600 1450
Connection ~ 5600 1450
Wire Wire Line
	5600 1450 5700 1450
$Comp
L Device:R R16
U 1 1 5E7AF1BF
P 5550 2050
F 0 "R16" H 5620 2096 50  0000 L CNN
F 1 "10k" H 5620 2005 50  0000 L CNN
F 2 "" V 5480 2050 50  0001 C CNN
F 3 "~" H 5550 2050 50  0001 C CNN
	1    5550 2050
	0    -1   -1   0   
$EndComp
$Comp
L Device:R R17
U 1 1 5E7B0AC6
P 5550 2150
F 0 "R17" H 5620 2196 50  0000 L CNN
F 1 "10k" H 5620 2105 50  0000 L CNN
F 2 "" V 5480 2150 50  0001 C CNN
F 3 "~" H 5550 2150 50  0001 C CNN
	1    5550 2150
	0    -1   -1   0   
$EndComp
Wire Wire Line
	5400 2050 5400 2150
$Comp
L power:+5V #PWR0104
U 1 1 5E7B978D
P 4700 4550
F 0 "#PWR0104" H 4700 4400 50  0001 C CNN
F 1 "+5V" H 4715 4723 50  0000 C CNN
F 2 "" H 4700 4550 50  0001 C CNN
F 3 "" H 4700 4550 50  0001 C CNN
	1    4700 4550
	1    0    0    -1  
$EndComp
Wire Wire Line
	4700 4550 4700 4650
Wire Wire Line
	4200 5250 4050 5250
Wire Wire Line
	4050 5250 4050 5350
Wire Wire Line
	4050 5350 4200 5350
Wire Wire Line
	5200 5650 4700 5650
Wire Wire Line
	4700 5650 4700 5550
$Comp
L Device:C C1
U 1 1 5E7BDDB5
P 5200 5500
F 0 "C1" H 5315 5546 50  0000 L CNN
F 1 "100n" H 5315 5455 50  0000 L CNN
F 2 "" H 5238 5350 50  0001 C CNN
F 3 "~" H 5200 5500 50  0001 C CNN
	1    5200 5500
	1    0    0    -1  
$EndComp
$Comp
L Timer:TLC555 U6
U 1 1 5E7B51F2
P 4700 5250
F 0 "U6" H 4700 5831 50  0000 C CNN
F 1 "TLC555" H 4700 5740 50  0000 C CNN
F 2 "" H 4750 5000 50  0001 L CNN
F 3 "http://www.ti.com/lit/ds/symlink/tlc555.pdf" H 5350 4700 50  0001 C CNN
	1    4700 5250
	1    0    0    -1  
$EndComp
Connection ~ 4700 5650
Wire Wire Line
	3650 4150 3650 5650
Wire Wire Line
	3650 5650 4050 5650
$Comp
L Device:CP 2.2u1
U 1 1 5E7C8FAE
P 4050 5500
F 0 "2.2u1" H 4168 5546 50  0000 L CNN
F 1 "CP" H 4168 5455 50  0000 L CNN
F 2 "" H 4088 5350 50  0001 C CNN
F 3 "~" H 4050 5500 50  0001 C CNN
	1    4050 5500
	1    0    0    -1  
$EndComp
Connection ~ 4050 5350
Connection ~ 4050 5650
Wire Wire Line
	4050 5650 4700 5650
$Comp
L Device:R R10
U 1 1 5E7CAA9E
P 4050 5100
F 0 "R10" H 3980 5054 50  0000 R CNN
F 1 "100k" H 3980 5145 50  0000 R CNN
F 2 "" V 3980 5100 50  0001 C CNN
F 3 "~" H 4050 5100 50  0001 C CNN
	1    4050 5100
	-1   0    0    1   
$EndComp
$Comp
L Device:R R9
U 1 1 5E7CCA60
P 4050 4800
F 0 "R9" H 4120 4846 50  0000 L CNN
F 1 "10k" H 4120 4755 50  0000 L CNN
F 2 "" V 3980 4800 50  0001 C CNN
F 3 "~" H 4050 4800 50  0001 C CNN
	1    4050 4800
	-1   0    0    1   
$EndComp
Wire Wire Line
	4050 4950 4200 4950
Wire Wire Line
	4200 4950 4200 5050
Connection ~ 4050 4950
Wire Wire Line
	4050 4650 4700 4650
Connection ~ 4700 4650
Wire Wire Line
	4700 4650 4700 4850
Wire Wire Line
	4700 4650 5200 4650
Wire Wire Line
	5200 4650 5200 5050
$Comp
L Device:R R15
U 1 1 5E7D5432
P 5550 1750
F 0 "R15" H 5620 1796 50  0000 L CNN
F 1 "10k" H 5620 1705 50  0000 L CNN
F 2 "" V 5480 1750 50  0001 C CNN
F 3 "~" H 5550 1750 50  0001 C CNN
	1    5550 1750
	0    1    1    0   
$EndComp
Wire Wire Line
	5400 1750 5300 1750
Connection ~ 4050 5250
Wire Wire Line
	2750 3200 2750 4150
Wire Wire Line
	2750 4150 3650 4150
Wire Wire Line
	2750 3050 2750 2550
Wire Wire Line
	2750 1000 2850 1000
Connection ~ 3750 1000
$Comp
L Switch:SW_Push SW1
U 1 1 5E7FBB96
P 3050 1500
F 0 "SW1" H 3050 1785 50  0000 C CNN
F 1 "SW_Push" H 3050 1694 50  0000 C CNN
F 2 "" H 3050 1700 50  0001 C CNN
F 3 "~" H 3050 1700 50  0001 C CNN
	1    3050 1500
	1    0    0    -1  
$EndComp
$Comp
L power:Earth #PWR0105
U 1 1 5E7FBB9C
P 3250 1500
F 0 "#PWR0105" H 3250 1250 50  0001 C CNN
F 1 "Earth" H 3250 1350 50  0001 C CNN
F 2 "" H 3250 1500 50  0001 C CNN
F 3 "~" H 3250 1500 50  0001 C CNN
	1    3250 1500
	1    0    0    -1  
$EndComp
Connection ~ 6400 4150
$Comp
L Device:R R19
U 1 1 5E7A924F
P 5600 1300
F 0 "R19" H 5670 1346 50  0000 L CNN
F 1 "10k" H 5670 1255 50  0000 L CNN
F 2 "" V 5530 1300 50  0001 C CNN
F 3 "~" H 5600 1300 50  0001 C CNN
	1    5600 1300
	1    0    0    -1  
$EndComp
$Comp
L CPU:Z80CPU U8
U 1 1 5E760A88
P 6400 2650
F 0 "U8" H 6400 4331 50  0000 C CNN
F 1 "Z80CPU" H 6400 4240 50  0000 C CNN
F 2 "" H 6400 3050 50  0001 C CNN
F 3 "www.zilog.com/manage_directlink.php?filepath=docs/z80/um0080" H 6400 3050 50  0001 C CNN
	1    6400 2650
	1    0    0    -1  
$EndComp
$Comp
L Device:R R5
U 1 1 5E806381
P 2850 1350
F 0 "R5" H 2920 1396 50  0000 L CNN
F 1 "10k" H 2920 1305 50  0000 L CNN
F 2 "" V 2780 1350 50  0001 C CNN
F 3 "~" H 2850 1350 50  0001 C CNN
	1    2850 1350
	1    0    0    -1  
$EndComp
Wire Wire Line
	2850 1200 2850 1000
Connection ~ 2850 1000
Wire Wire Line
	2850 1000 3750 1000
$Comp
L Device:R R2
U 1 1 5E80F2B8
P 2500 2550
F 0 "R2" H 2570 2596 50  0000 L CNN
F 1 "10k" H 2570 2505 50  0000 L CNN
F 2 "" V 2430 2550 50  0001 C CNN
F 3 "~" H 2500 2550 50  0001 C CNN
	1    2500 2550
	0    -1   -1   0   
$EndComp
$Comp
L Device:R R4
U 1 1 5E81264E
P 2500 4000
F 0 "R4" H 2570 4046 50  0000 L CNN
F 1 "10k" H 2570 3955 50  0000 L CNN
F 2 "" V 2430 4000 50  0001 C CNN
F 3 "~" H 2500 4000 50  0001 C CNN
	1    2500 4000
	0    -1   -1   0   
$EndComp
Wire Wire Line
	2650 2550 2750 2550
Connection ~ 2650 2550
Connection ~ 2750 2550
Wire Wire Line
	2750 2550 2750 1000
$Comp
L Device:R R1
U 1 1 5E81CBEA
P 2500 2250
F 0 "R1" H 2570 2296 50  0000 L CNN
F 1 "10k" H 2570 2205 50  0000 L CNN
F 2 "" V 2430 2250 50  0001 C CNN
F 3 "~" H 2500 2250 50  0001 C CNN
	1    2500 2250
	0    -1   -1   0   
$EndComp
$Comp
L Device:R R3
U 1 1 5E81FF41
P 2500 3700
F 0 "R3" H 2570 3746 50  0000 L CNN
F 1 "10k" H 2570 3655 50  0000 L CNN
F 2 "" V 2430 3700 50  0001 C CNN
F 3 "~" H 2500 3700 50  0001 C CNN
	1    2500 3700
	0    -1   -1   0   
$EndComp
Wire Wire Line
	2650 2250 2650 2550
Connection ~ 1800 3050
Wire Wire Line
	1150 4500 1800 4500
Wire Wire Line
	1150 3050 1150 4500
Wire Wire Line
	1800 3050 1150 3050
Connection ~ 1800 3200
Wire Wire Line
	1100 3200 1800 3200
Wire Wire Line
	1100 1750 1100 3200
Wire Wire Line
	1800 1750 1100 1750
$Comp
L 74xx:74HC595 U3
U 1 1 5E7ED7E0
P 1800 3900
F 0 "U3" H 1800 3019 50  0000 C CNN
F 1 "74HC595" H 1800 3110 50  0000 C CNN
F 2 "" H 1800 3900 50  0001 C CNN
F 3 "http://www.ti.com/lit/ds/symlink/sn74hc595.pdf" H 1800 3900 50  0001 C CNN
	1    1800 3900
	-1   0    0    1   
$EndComp
$Comp
L 74xx:74HC595 U2
U 1 1 5E7EAB68
P 1800 2450
F 0 "U2" H 1800 1569 50  0000 C CNN
F 1 "74HC595" H 1800 1660 50  0000 C CNN
F 2 "" H 1800 2450 50  0001 C CNN
F 3 "http://www.ti.com/lit/ds/symlink/sn74hc595.pdf" H 1800 2450 50  0001 C CNN
	1    1800 2450
	-1   0    0    1   
$EndComp
Wire Wire Line
	1800 3200 2750 3200
Wire Wire Line
	1800 3050 2750 3050
Wire Wire Line
	2650 2550 2650 3700
Connection ~ 2650 3700
Wire Wire Line
	2650 3700 2650 4000
Wire Wire Line
	2350 2250 2300 2250
Wire Wire Line
	2350 2550 2200 2550
Wire Wire Line
	2350 4000 2200 4000
Wire Wire Line
	2300 3700 2300 2750
Wire Wire Line
	2300 3700 2200 3700
Connection ~ 2300 2250
Wire Wire Line
	2300 2250 2200 2250
Wire Wire Line
	3100 2750 2300 2750
Connection ~ 2300 2750
Wire Wire Line
	2200 3800 2250 3800
Wire Wire Line
	2250 2350 2200 2350
Wire Wire Line
	2250 2350 2250 3800
Wire Wire Line
	2300 2750 2300 2250
Wire Wire Line
	2250 2350 2350 2350
Wire Wire Line
	2350 2350 2350 2450
Wire Wire Line
	2350 2450 2850 2450
Wire Wire Line
	2850 2450 2850 2550
Wire Wire Line
	2850 2550 3100 2550
Connection ~ 2250 2350
Wire Wire Line
	2350 4100 2200 4100
Wire Wire Line
	2200 2650 2350 2650
Connection ~ 2300 3700
Wire Wire Line
	2350 3700 2300 3700
Wire Wire Line
	2350 2650 2350 4100
Wire Wire Line
	2350 2650 2900 2650
Wire Wire Line
	2900 2650 2900 2450
Wire Wire Line
	2900 2450 3100 2450
Connection ~ 2350 2650
Wire Wire Line
	2200 4300 3050 4300
Wire Wire Line
	3050 4300 3050 2650
Wire Wire Line
	3050 2650 3100 2650
Wire Wire Line
	2200 2850 2200 3150
Wire Wire Line
	2200 3150 1400 3150
Wire Wire Line
	1400 3150 1400 3400
Entry Wire Line
	1200 4200 1300 4300
Entry Wire Line
	1200 4100 1300 4200
Entry Wire Line
	1200 4000 1300 4100
Entry Wire Line
	1200 3900 1300 4000
Entry Wire Line
	1200 3800 1300 3900
Entry Wire Line
	1200 3700 1300 3800
Entry Wire Line
	1200 3600 1300 3700
Entry Wire Line
	1200 3500 1300 3600
Entry Wire Line
	1200 2750 1300 2850
Entry Wire Line
	1200 2650 1300 2750
Entry Wire Line
	1200 2550 1300 2650
Entry Wire Line
	1200 2450 1300 2550
Entry Wire Line
	1200 2350 1300 2450
Entry Wire Line
	1200 2250 1300 2350
Entry Wire Line
	1200 2150 1300 2250
Entry Wire Line
	1200 2050 1300 2150
$Comp
L Transistor_Array:ULN2803A U15
U 1 1 5E8B8656
P 10800 6450
F 0 "U15" H 10800 7017 50  0000 C CNN
F 1 "ULN2803A" H 10800 6926 50  0000 C CNN
F 2 "" H 10850 5800 50  0001 L CNN
F 3 "http://www.ti.com/lit/ds/symlink/uln2803a.pdf" H 10900 6250 50  0001 C CNN
	1    10800 6450
	1    0    0    -1  
$EndComp
$Comp
L 74xx:74LS241 U13
U 1 1 5E8B9367
P 9900 6750
F 0 "U13" H 9900 7731 50  0000 C CNN
F 1 "74LS241" H 9900 7640 50  0000 C CNN
F 2 "" H 9900 6750 50  0001 C CNN
F 3 "http://www.ti.com/lit/gpn/sn74LS241" H 9900 6750 50  0001 C CNN
	1    9900 6750
	1    0    0    -1  
$EndComp
$Comp
L Device:LED_Small D25
U 1 1 5E8D6891
P 11400 6250
F 0 "D25" H 11400 6485 50  0000 C CNN
F 1 "LED_Small" H 11400 6394 50  0000 C CNN
F 2 "" V 11400 6250 50  0001 C CNN
F 3 "~" V 11400 6250 50  0001 C CNN
	1    11400 6250
	1    0    0    -1  
$EndComp
$Comp
L Device:LED_Small D26
U 1 1 5E8D745F
P 11400 6350
F 0 "D26" H 11400 6585 50  0000 C CNN
F 1 "LED_Small" H 11400 6494 50  0000 C CNN
F 2 "" V 11400 6350 50  0001 C CNN
F 3 "~" V 11400 6350 50  0001 C CNN
	1    11400 6350
	1    0    0    -1  
$EndComp
$Comp
L Device:LED_Small D27
U 1 1 5E8DCC4D
P 11400 6450
F 0 "D27" H 11400 6685 50  0000 C CNN
F 1 "LED_Small" H 11400 6594 50  0000 C CNN
F 2 "" V 11400 6450 50  0001 C CNN
F 3 "~" V 11400 6450 50  0001 C CNN
	1    11400 6450
	1    0    0    -1  
$EndComp
$Comp
L Device:LED_Small D28
U 1 1 5E8E261A
P 11400 6550
F 0 "D28" H 11400 6785 50  0000 C CNN
F 1 "LED_Small" H 11400 6694 50  0000 C CNN
F 2 "" V 11400 6550 50  0001 C CNN
F 3 "~" V 11400 6550 50  0001 C CNN
	1    11400 6550
	1    0    0    -1  
$EndComp
$Comp
L Device:LED_Small D29
U 1 1 5E8E7E56
P 11400 6650
F 0 "D29" H 11400 6885 50  0000 C CNN
F 1 "LED_Small" H 11400 6794 50  0000 C CNN
F 2 "" V 11400 6650 50  0001 C CNN
F 3 "~" V 11400 6650 50  0001 C CNN
	1    11400 6650
	1    0    0    -1  
$EndComp
$Comp
L Device:LED_Small D30
U 1 1 5E8ED78E
P 11400 6750
F 0 "D30" H 11400 6985 50  0000 C CNN
F 1 "LED_Small" H 11400 6894 50  0000 C CNN
F 2 "" V 11400 6750 50  0001 C CNN
F 3 "~" V 11400 6750 50  0001 C CNN
	1    11400 6750
	1    0    0    -1  
$EndComp
$Comp
L Device:LED_Small D31
U 1 1 5E8F3236
P 11400 6850
F 0 "D31" H 11400 7085 50  0000 C CNN
F 1 "LED_Small" H 11400 6994 50  0000 C CNN
F 2 "" V 11400 6850 50  0001 C CNN
F 3 "~" V 11400 6850 50  0001 C CNN
	1    11400 6850
	1    0    0    -1  
$EndComp
$Comp
L Device:LED_Small D32
U 1 1 5E8F8BA3
P 11400 6950
F 0 "D32" H 11400 7185 50  0000 C CNN
F 1 "LED_Small" H 11400 7094 50  0000 C CNN
F 2 "" V 11400 6950 50  0001 C CNN
F 3 "~" V 11400 6950 50  0001 C CNN
	1    11400 6950
	1    0    0    -1  
$EndComp
Wire Wire Line
	11200 6250 11300 6250
Wire Wire Line
	11200 6350 11300 6350
Wire Wire Line
	11200 6450 11300 6450
Wire Wire Line
	11200 6550 11300 6550
Wire Wire Line
	11200 6650 11300 6650
Wire Wire Line
	11200 6750 11300 6750
Wire Wire Line
	11200 6850 11300 6850
Wire Wire Line
	11200 6950 11300 6950
Wire Wire Line
	11500 6250 11600 6250
Wire Wire Line
	11500 6350 11600 6350
Wire Wire Line
	11500 6450 11600 6450
Wire Wire Line
	11500 6550 11600 6550
Wire Wire Line
	11500 6650 11600 6650
Wire Wire Line
	11500 6750 11600 6750
Wire Wire Line
	11500 6850 11600 6850
Wire Wire Line
	11500 6950 11600 6950
$Comp
L Device:R_Network08 RN4
U 1 1 5E98D3AE
P 11800 6650
F 0 "RN4" V 11183 6650 50  0000 C CNN
F 1 "R_Network08" V 11274 6650 50  0000 C CNN
F 2 "Resistor_THT:R_Array_SIP9" V 12275 6650 50  0001 C CNN
F 3 "http://www.vishay.com/docs/31509/csc.pdf" H 11800 6650 50  0001 C CNN
	1    11800 6650
	0    1    1    0   
$EndComp
Entry Wire Line
	9200 6850 9300 6950
Entry Wire Line
	9200 6750 9300 6850
Entry Wire Line
	9200 6650 9300 6750
Entry Wire Line
	9200 6550 9300 6650
Entry Wire Line
	9200 6450 9300 6550
Entry Wire Line
	9200 6350 9300 6450
Entry Wire Line
	9200 6250 9300 6350
Entry Wire Line
	9200 6150 9300 6250
$Comp
L power:+5V #PWR0106
U 1 1 5E9A44C6
P 12000 6250
F 0 "#PWR0106" H 12000 6100 50  0001 C CNN
F 1 "+5V" V 12015 6378 50  0000 L CNN
F 2 "" H 12000 6250 50  0001 C CNN
F 3 "" H 12000 6250 50  0001 C CNN
	1    12000 6250
	0    1    1    0   
$EndComp
Wire Wire Line
	10800 7550 10800 7150
Connection ~ 3650 4150
Wire Wire Line
	3650 4150 3700 4150
Wire Wire Line
	3700 4150 6400 4150
Wire Wire Line
	3800 1000 5050 1000
Wire Wire Line
	5300 1750 5300 2250
Wire Wire Line
	5200 5250 5300 5250
Wire Wire Line
	5400 2050 5050 2050
Wire Wire Line
	5050 2050 5050 1000
Connection ~ 5400 2050
Connection ~ 5050 1000
$Comp
L Transistor_Array:ULN2803A U10
U 1 1 5EA23BFE
P 7900 6450
F 0 "U10" H 7900 7017 50  0000 C CNN
F 1 "ULN2803A" H 7900 6926 50  0000 C CNN
F 2 "" H 7950 5800 50  0001 L CNN
F 3 "http://www.ti.com/lit/ds/symlink/uln2803a.pdf" H 8000 6250 50  0001 C CNN
	1    7900 6450
	1    0    0    -1  
$EndComp
$Comp
L 74xx:74LS241 U9
U 1 1 5EA23C04
P 7000 6750
F 0 "U9" H 7000 7731 50  0000 C CNN
F 1 "74LS241" H 7000 7640 50  0000 C CNN
F 2 "" H 7000 6750 50  0001 C CNN
F 3 "http://www.ti.com/lit/gpn/sn74LS241" H 7000 6750 50  0001 C CNN
	1    7000 6750
	1    0    0    -1  
$EndComp
$Comp
L Device:LED_Small D17
U 1 1 5EA23C0A
P 8500 6250
F 0 "D17" H 8500 6485 50  0000 C CNN
F 1 "LED_Small" H 8500 6394 50  0000 C CNN
F 2 "" V 8500 6250 50  0001 C CNN
F 3 "~" V 8500 6250 50  0001 C CNN
	1    8500 6250
	1    0    0    -1  
$EndComp
$Comp
L Device:LED_Small D18
U 1 1 5EA23C10
P 8500 6350
F 0 "D18" H 8500 6585 50  0000 C CNN
F 1 "LED_Small" H 8500 6494 50  0000 C CNN
F 2 "" V 8500 6350 50  0001 C CNN
F 3 "~" V 8500 6350 50  0001 C CNN
	1    8500 6350
	1    0    0    -1  
$EndComp
$Comp
L Device:LED_Small D19
U 1 1 5EA23C16
P 8500 6450
F 0 "D19" H 8500 6685 50  0000 C CNN
F 1 "LED_Small" H 8500 6594 50  0000 C CNN
F 2 "" V 8500 6450 50  0001 C CNN
F 3 "~" V 8500 6450 50  0001 C CNN
	1    8500 6450
	1    0    0    -1  
$EndComp
$Comp
L Device:LED_Small D20
U 1 1 5EA23C1C
P 8500 6550
F 0 "D20" H 8500 6785 50  0000 C CNN
F 1 "LED_Small" H 8500 6694 50  0000 C CNN
F 2 "" V 8500 6550 50  0001 C CNN
F 3 "~" V 8500 6550 50  0001 C CNN
	1    8500 6550
	1    0    0    -1  
$EndComp
$Comp
L Device:LED_Small D21
U 1 1 5EA23C22
P 8500 6650
F 0 "D21" H 8500 6885 50  0000 C CNN
F 1 "LED_Small" H 8500 6794 50  0000 C CNN
F 2 "" V 8500 6650 50  0001 C CNN
F 3 "~" V 8500 6650 50  0001 C CNN
	1    8500 6650
	1    0    0    -1  
$EndComp
$Comp
L Device:LED_Small D22
U 1 1 5EA23C28
P 8500 6750
F 0 "D22" H 8500 6985 50  0000 C CNN
F 1 "LED_Small" H 8500 6894 50  0000 C CNN
F 2 "" V 8500 6750 50  0001 C CNN
F 3 "~" V 8500 6750 50  0001 C CNN
	1    8500 6750
	1    0    0    -1  
$EndComp
$Comp
L Device:LED_Small D23
U 1 1 5EA23C2E
P 8500 6850
F 0 "D23" H 8500 7085 50  0000 C CNN
F 1 "LED_Small" H 8500 6994 50  0000 C CNN
F 2 "" V 8500 6850 50  0001 C CNN
F 3 "~" V 8500 6850 50  0001 C CNN
	1    8500 6850
	1    0    0    -1  
$EndComp
$Comp
L Device:LED_Small D24
U 1 1 5EA23C34
P 8500 6950
F 0 "D24" H 8500 7185 50  0000 C CNN
F 1 "LED_Small" H 8500 7094 50  0000 C CNN
F 2 "" V 8500 6950 50  0001 C CNN
F 3 "~" V 8500 6950 50  0001 C CNN
	1    8500 6950
	1    0    0    -1  
$EndComp
Wire Wire Line
	8300 6250 8400 6250
Wire Wire Line
	8300 6350 8400 6350
Wire Wire Line
	8300 6450 8400 6450
Wire Wire Line
	8300 6550 8400 6550
Wire Wire Line
	8300 6650 8400 6650
Wire Wire Line
	8300 6750 8400 6750
Wire Wire Line
	8300 6850 8400 6850
Wire Wire Line
	8300 6950 8400 6950
Wire Wire Line
	8600 6250 8700 6250
Wire Wire Line
	8600 6350 8700 6350
Wire Wire Line
	8600 6450 8700 6450
Wire Wire Line
	8600 6550 8700 6550
Wire Wire Line
	8600 6650 8700 6650
Wire Wire Line
	8600 6750 8700 6750
Wire Wire Line
	8600 6850 8700 6850
Wire Wire Line
	8600 6950 8700 6950
$Comp
L Device:R_Network08 RN3
U 1 1 5EA23C4A
P 8900 6650
F 0 "RN3" V 8283 6650 50  0000 C CNN
F 1 "R_Network08" V 8374 6650 50  0000 C CNN
F 2 "Resistor_THT:R_Array_SIP9" V 9375 6650 50  0001 C CNN
F 3 "http://www.vishay.com/docs/31509/csc.pdf" H 8900 6650 50  0001 C CNN
	1    8900 6650
	0    1    1    0   
$EndComp
Entry Wire Line
	6300 6850 6400 6950
Entry Wire Line
	6300 6750 6400 6850
Entry Wire Line
	6300 6650 6400 6750
Entry Wire Line
	6300 6550 6400 6650
Entry Wire Line
	6300 6450 6400 6550
Entry Wire Line
	6300 6350 6400 6450
Entry Wire Line
	6300 6250 6400 6350
Entry Wire Line
	6300 6150 6400 6250
Wire Wire Line
	7000 7550 7900 7550
Wire Wire Line
	7900 7550 7900 7150
Wire Wire Line
	6400 4150 8650 4150
Connection ~ 7900 7550
$Comp
L power:+5V #PWR0107
U 1 1 5EA661F6
P 9900 5950
F 0 "#PWR0107" H 9900 5800 50  0001 C CNN
F 1 "+5V" H 9915 6123 50  0000 C CNN
F 2 "" H 9900 5950 50  0001 C CNN
F 3 "" H 9900 5950 50  0001 C CNN
	1    9900 5950
	1    0    0    -1  
$EndComp
$Comp
L power:+5V #PWR0108
U 1 1 5EA66CFB
P 7000 5950
F 0 "#PWR0108" H 7000 5800 50  0001 C CNN
F 1 "+5V" H 7015 6123 50  0000 C CNN
F 2 "" H 7000 5950 50  0001 C CNN
F 3 "" H 7000 5950 50  0001 C CNN
	1    7000 5950
	1    0    0    -1  
$EndComp
Connection ~ 9900 7550
Wire Wire Line
	7900 7550 9900 7550
Wire Wire Line
	9900 7550 10800 7550
$Comp
L power:+5V #PWR0109
U 1 1 5EAA3E08
P 9100 6250
F 0 "#PWR0109" H 9100 6100 50  0001 C CNN
F 1 "+5V" V 9115 6378 50  0000 L CNN
F 2 "" H 9100 6250 50  0001 C CNN
F 3 "" H 9100 6250 50  0001 C CNN
	1    9100 6250
	0    1    1    0   
$EndComp
$Comp
L Transistor_Array:ULN2803A U7
U 1 1 5EAEB20F
P 5000 6450
F 0 "U7" H 5000 7017 50  0000 C CNN
F 1 "ULN2803A" H 5000 6926 50  0000 C CNN
F 2 "" H 5050 5800 50  0001 L CNN
F 3 "http://www.ti.com/lit/ds/symlink/uln2803a.pdf" H 5100 6250 50  0001 C CNN
	1    5000 6450
	1    0    0    -1  
$EndComp
$Comp
L 74xx:74LS241 U5
U 1 1 5EAEB215
P 4100 6750
F 0 "U5" H 4100 7731 50  0000 C CNN
F 1 "74LS241" H 4100 7640 50  0000 C CNN
F 2 "" H 4100 6750 50  0001 C CNN
F 3 "http://www.ti.com/lit/gpn/sn74LS241" H 4100 6750 50  0001 C CNN
	1    4100 6750
	1    0    0    -1  
$EndComp
$Comp
L Device:LED_Small D9
U 1 1 5EAEB21B
P 5600 6250
F 0 "D9" H 5600 6485 50  0000 C CNN
F 1 "LED_Small" H 5600 6394 50  0000 C CNN
F 2 "" V 5600 6250 50  0001 C CNN
F 3 "~" V 5600 6250 50  0001 C CNN
	1    5600 6250
	1    0    0    -1  
$EndComp
$Comp
L Device:LED_Small D10
U 1 1 5EAEB221
P 5600 6350
F 0 "D10" H 5600 6585 50  0000 C CNN
F 1 "LED_Small" H 5600 6494 50  0000 C CNN
F 2 "" V 5600 6350 50  0001 C CNN
F 3 "~" V 5600 6350 50  0001 C CNN
	1    5600 6350
	1    0    0    -1  
$EndComp
$Comp
L Device:LED_Small D11
U 1 1 5EAEB227
P 5600 6450
F 0 "D11" H 5600 6685 50  0000 C CNN
F 1 "LED_Small" H 5600 6594 50  0000 C CNN
F 2 "" V 5600 6450 50  0001 C CNN
F 3 "~" V 5600 6450 50  0001 C CNN
	1    5600 6450
	1    0    0    -1  
$EndComp
$Comp
L Device:LED_Small D12
U 1 1 5EAEB22D
P 5600 6550
F 0 "D12" H 5600 6785 50  0000 C CNN
F 1 "LED_Small" H 5600 6694 50  0000 C CNN
F 2 "" V 5600 6550 50  0001 C CNN
F 3 "~" V 5600 6550 50  0001 C CNN
	1    5600 6550
	1    0    0    -1  
$EndComp
$Comp
L Device:LED_Small D13
U 1 1 5EAEB233
P 5600 6650
F 0 "D13" H 5600 6885 50  0000 C CNN
F 1 "LED_Small" H 5600 6794 50  0000 C CNN
F 2 "" V 5600 6650 50  0001 C CNN
F 3 "~" V 5600 6650 50  0001 C CNN
	1    5600 6650
	1    0    0    -1  
$EndComp
$Comp
L Device:LED_Small D14
U 1 1 5EAEB239
P 5600 6750
F 0 "D14" H 5600 6985 50  0000 C CNN
F 1 "LED_Small" H 5600 6894 50  0000 C CNN
F 2 "" V 5600 6750 50  0001 C CNN
F 3 "~" V 5600 6750 50  0001 C CNN
	1    5600 6750
	1    0    0    -1  
$EndComp
$Comp
L Device:LED_Small D15
U 1 1 5EAEB23F
P 5600 6850
F 0 "D15" H 5600 7085 50  0000 C CNN
F 1 "LED_Small" H 5600 6994 50  0000 C CNN
F 2 "" V 5600 6850 50  0001 C CNN
F 3 "~" V 5600 6850 50  0001 C CNN
	1    5600 6850
	1    0    0    -1  
$EndComp
$Comp
L Device:LED_Small D16
U 1 1 5EAEB245
P 5600 6950
F 0 "D16" H 5600 7185 50  0000 C CNN
F 1 "LED_Small" H 5600 7094 50  0000 C CNN
F 2 "" V 5600 6950 50  0001 C CNN
F 3 "~" V 5600 6950 50  0001 C CNN
	1    5600 6950
	1    0    0    -1  
$EndComp
Wire Wire Line
	5400 6250 5500 6250
Wire Wire Line
	5400 6350 5500 6350
Wire Wire Line
	5400 6450 5500 6450
Wire Wire Line
	5400 6550 5500 6550
Wire Wire Line
	5400 6650 5500 6650
Wire Wire Line
	5400 6750 5500 6750
Wire Wire Line
	5400 6850 5500 6850
Wire Wire Line
	5400 6950 5500 6950
Wire Wire Line
	5700 6250 5800 6250
Wire Wire Line
	5700 6350 5800 6350
Wire Wire Line
	5700 6450 5800 6450
Wire Wire Line
	5700 6550 5800 6550
Wire Wire Line
	5700 6650 5800 6650
Wire Wire Line
	5700 6750 5800 6750
Wire Wire Line
	5700 6850 5800 6850
Wire Wire Line
	5700 6950 5800 6950
$Comp
L Device:R_Network08 RN2
U 1 1 5EAEB25B
P 6000 6650
F 0 "RN2" V 5383 6650 50  0000 C CNN
F 1 "R_Network08" V 5474 6650 50  0000 C CNN
F 2 "Resistor_THT:R_Array_SIP9" V 6475 6650 50  0001 C CNN
F 3 "http://www.vishay.com/docs/31509/csc.pdf" H 6000 6650 50  0001 C CNN
	1    6000 6650
	0    1    1    0   
$EndComp
Entry Wire Line
	3400 6850 3500 6950
Entry Wire Line
	3400 6750 3500 6850
Entry Wire Line
	3400 6650 3500 6750
Entry Wire Line
	3400 6550 3500 6650
Entry Wire Line
	3400 6450 3500 6550
Entry Wire Line
	3400 6250 3500 6350
Wire Wire Line
	4100 7550 5000 7550
Wire Wire Line
	5000 7550 5000 7150
Connection ~ 5000 7550
Wire Wire Line
	5000 7550 7000 7550
$Comp
L power:+5V #PWR0110
U 1 1 5EAEB26D
P 6200 6250
F 0 "#PWR0110" H 6200 6100 50  0001 C CNN
F 1 "+5V" V 6215 6378 50  0000 L CNN
F 2 "" H 6200 6250 50  0001 C CNN
F 3 "" H 6200 6250 50  0001 C CNN
	1    6200 6250
	0    1    1    0   
$EndComp
Wire Bus Line
	4550 4600 4550 850 
Connection ~ 4550 4600
Connection ~ 4550 850 
Connection ~ 7000 7550
Entry Wire Line
	3400 6850 3500 6950
Entry Wire Line
	3400 6750 3500 6850
Entry Wire Line
	3400 6650 3500 6750
Entry Wire Line
	3400 6550 3500 6650
Entry Wire Line
	3400 6450 3500 6550
Entry Wire Line
	3400 6350 3500 6450
Entry Wire Line
	3400 6250 3500 6350
Entry Wire Line
	3400 6150 3500 6250
$Comp
L Transistor_Array:ULN2803A U4
U 1 1 5EB65015
P 2100 6450
F 0 "U4" H 2100 7017 50  0000 C CNN
F 1 "ULN2803A" H 2100 6926 50  0000 C CNN
F 2 "" H 2150 5800 50  0001 L CNN
F 3 "http://www.ti.com/lit/ds/symlink/uln2803a.pdf" H 2200 6250 50  0001 C CNN
	1    2100 6450
	1    0    0    -1  
$EndComp
$Comp
L 74xx:74LS241 U1
U 1 1 5EB6501B
P 1200 6750
F 0 "U1" H 1200 7731 50  0000 C CNN
F 1 "74LS241" H 1200 7640 50  0000 C CNN
F 2 "" H 1200 6750 50  0001 C CNN
F 3 "http://www.ti.com/lit/gpn/sn74LS241" H 1200 6750 50  0001 C CNN
	1    1200 6750
	1    0    0    -1  
$EndComp
$Comp
L Device:LED_Small D1
U 1 1 5EB65021
P 2700 6250
F 0 "D1" H 2700 6485 50  0000 C CNN
F 1 "LED_Small" H 2700 6394 50  0000 C CNN
F 2 "" V 2700 6250 50  0001 C CNN
F 3 "~" V 2700 6250 50  0001 C CNN
	1    2700 6250
	1    0    0    -1  
$EndComp
$Comp
L Device:LED_Small D2
U 1 1 5EB65027
P 2700 6350
F 0 "D2" H 2700 6585 50  0000 C CNN
F 1 "LED_Small" H 2700 6494 50  0000 C CNN
F 2 "" V 2700 6350 50  0001 C CNN
F 3 "~" V 2700 6350 50  0001 C CNN
	1    2700 6350
	1    0    0    -1  
$EndComp
$Comp
L Device:LED_Small D3
U 1 1 5EB6502D
P 2700 6450
F 0 "D3" H 2700 6685 50  0000 C CNN
F 1 "LED_Small" H 2700 6594 50  0000 C CNN
F 2 "" V 2700 6450 50  0001 C CNN
F 3 "~" V 2700 6450 50  0001 C CNN
	1    2700 6450
	1    0    0    -1  
$EndComp
$Comp
L Device:LED_Small D4
U 1 1 5EB65033
P 2700 6550
F 0 "D4" H 2700 6785 50  0000 C CNN
F 1 "LED_Small" H 2700 6694 50  0000 C CNN
F 2 "" V 2700 6550 50  0001 C CNN
F 3 "~" V 2700 6550 50  0001 C CNN
	1    2700 6550
	1    0    0    -1  
$EndComp
$Comp
L Device:LED_Small D5
U 1 1 5EB65039
P 2700 6650
F 0 "D5" H 2700 6885 50  0000 C CNN
F 1 "LED_Small" H 2700 6794 50  0000 C CNN
F 2 "" V 2700 6650 50  0001 C CNN
F 3 "~" V 2700 6650 50  0001 C CNN
	1    2700 6650
	1    0    0    -1  
$EndComp
$Comp
L Device:LED_Small D6
U 1 1 5EB6503F
P 2700 6750
F 0 "D6" H 2700 6985 50  0000 C CNN
F 1 "LED_Small" H 2700 6894 50  0000 C CNN
F 2 "" V 2700 6750 50  0001 C CNN
F 3 "~" V 2700 6750 50  0001 C CNN
	1    2700 6750
	1    0    0    -1  
$EndComp
$Comp
L Device:LED_Small D7
U 1 1 5EB65045
P 2700 6850
F 0 "D7" H 2700 7085 50  0000 C CNN
F 1 "LED_Small" H 2700 6994 50  0000 C CNN
F 2 "" V 2700 6850 50  0001 C CNN
F 3 "~" V 2700 6850 50  0001 C CNN
	1    2700 6850
	1    0    0    -1  
$EndComp
$Comp
L Device:LED_Small D8
U 1 1 5EB6504B
P 2700 6950
F 0 "D8" H 2700 7185 50  0000 C CNN
F 1 "LED_Small" H 2700 7094 50  0000 C CNN
F 2 "" V 2700 6950 50  0001 C CNN
F 3 "~" V 2700 6950 50  0001 C CNN
	1    2700 6950
	1    0    0    -1  
$EndComp
Wire Wire Line
	2500 6250 2600 6250
Wire Wire Line
	2500 6350 2600 6350
Wire Wire Line
	2500 6450 2600 6450
Wire Wire Line
	2500 6550 2600 6550
Wire Wire Line
	2500 6650 2600 6650
Wire Wire Line
	2500 6750 2600 6750
Wire Wire Line
	2500 6850 2600 6850
Wire Wire Line
	2500 6950 2600 6950
Wire Wire Line
	2800 6250 2900 6250
Wire Wire Line
	2800 6350 2900 6350
Wire Wire Line
	2800 6450 2900 6450
Wire Wire Line
	2800 6550 2900 6550
Wire Wire Line
	2800 6650 2900 6650
Wire Wire Line
	2800 6750 2900 6750
Wire Wire Line
	2800 6850 2900 6850
Wire Wire Line
	2800 6950 2900 6950
$Comp
L Device:R_Network08 RN1
U 1 1 5EB65061
P 3100 6650
F 0 "RN1" V 2483 6650 50  0000 C CNN
F 1 "R_Network08" V 2574 6650 50  0000 C CNN
F 2 "Resistor_THT:R_Array_SIP9" V 3575 6650 50  0001 C CNN
F 3 "http://www.vishay.com/docs/31509/csc.pdf" H 3100 6650 50  0001 C CNN
	1    3100 6650
	0    1    1    0   
$EndComp
Entry Wire Line
	500  6850 600  6950
Entry Wire Line
	500  6750 600  6850
Entry Wire Line
	500  6650 600  6750
Entry Wire Line
	500  6550 600  6650
Entry Wire Line
	500  6450 600  6550
Entry Wire Line
	500  6350 600  6450
Entry Wire Line
	500  6250 600  6350
Entry Wire Line
	500  6150 600  6250
Wire Wire Line
	1200 7550 2100 7550
Wire Wire Line
	2100 7550 2100 7150
Connection ~ 2100 7550
Wire Wire Line
	2100 7550 4100 7550
$Comp
L power:+5V #PWR0111
U 1 1 5EB65073
P 3300 6250
F 0 "#PWR0111" H 3300 6100 50  0001 C CNN
F 1 "+5V" V 3315 6378 50  0000 L CNN
F 2 "" H 3300 6250 50  0001 C CNN
F 3 "" H 3300 6250 50  0001 C CNN
	1    3300 6250
	0    1    1    0   
$EndComp
$Comp
L power:+5V #PWR0112
U 1 1 5EB73487
P 4100 5950
F 0 "#PWR0112" H 4100 5800 50  0001 C CNN
F 1 "+5V" H 4115 6123 50  0000 C CNN
F 2 "" H 4100 5950 50  0001 C CNN
F 3 "" H 4100 5950 50  0001 C CNN
	1    4100 5950
	1    0    0    -1  
$EndComp
$Comp
L power:+5V #PWR0113
U 1 1 5EB81824
P 1200 5950
F 0 "#PWR0113" H 1200 5800 50  0001 C CNN
F 1 "+5V" H 1215 6123 50  0000 C CNN
F 2 "" H 1200 5950 50  0001 C CNN
F 3 "" H 1200 5950 50  0001 C CNN
	1    1200 5950
	1    0    0    -1  
$EndComp
Wire Bus Line
	4550 4600 6300 4600
Wire Bus Line
	7550 5850 9200 5850
Wire Bus Line
	4800 4350 3300 4350
Wire Bus Line
	3300 4350 3300 5700
Entry Wire Line
	4800 2150 4900 2250
Wire Wire Line
	4900 2250 5300 2250
Connection ~ 5300 2250
Wire Wire Line
	5300 2250 5300 5250
Wire Wire Line
	5700 2450 4900 2450
Wire Wire Line
	5700 2750 4900 2750
Wire Wire Line
	5700 3350 5200 3350
Wire Wire Line
	5700 3450 5550 3450
Wire Wire Line
	5450 3150 5400 3150
Connection ~ 5450 3150
Wire Wire Line
	5500 3250 5100 3250
Connection ~ 5500 3250
Entry Wire Line
	4800 2350 4900 2450
Entry Wire Line
	4800 2650 4900 2750
Entry Wire Line
	4800 3050 4900 3150
Entry Wire Line
	4800 3150 4900 3250
Entry Wire Line
	4800 3250 4900 3350
Entry Wire Line
	4800 3350 4900 3450
Entry Wire Line
	4800 3750 4900 3850
$Comp
L Switch:SW_DIP_x08 SW3
U 1 1 5EC55FB0
P 6600 8550
F 0 "SW3" V 6554 9080 50  0000 L CNN
F 1 "SW_DIP_x08" V 6645 9080 50  0000 L CNN
F 2 "" H 6600 8550 50  0001 C CNN
F 3 "~" H 6600 8550 50  0001 C CNN
	1    6600 8550
	0    1    1    0   
$EndComp
$Comp
L power:Earth #PWR0114
U 1 1 5EC5C1AD
P 6300 8850
F 0 "#PWR0114" H 6300 8600 50  0001 C CNN
F 1 "Earth" H 6300 8700 50  0001 C CNN
F 2 "" H 6300 8850 50  0001 C CNN
F 3 "~" H 6300 8850 50  0001 C CNN
	1    6300 8850
	1    0    0    -1  
$EndComp
$Comp
L power:Earth #PWR0115
U 1 1 5EC5D102
P 6400 8850
F 0 "#PWR0115" H 6400 8600 50  0001 C CNN
F 1 "Earth" H 6400 8700 50  0001 C CNN
F 2 "" H 6400 8850 50  0001 C CNN
F 3 "~" H 6400 8850 50  0001 C CNN
	1    6400 8850
	1    0    0    -1  
$EndComp
$Comp
L Device:R R21
U 1 1 5EC5E7CB
P 6300 8000
F 0 "R21" H 6370 8046 50  0000 L CNN
F 1 "10k" H 6370 7955 50  0000 L CNN
F 2 "" V 6230 8000 50  0001 C CNN
F 3 "~" H 6300 8000 50  0001 C CNN
	1    6300 8000
	1    0    0    -1  
$EndComp
$Comp
L Device:R R22
U 1 1 5EC6EB3B
P 6400 8000
F 0 "R22" H 6470 8046 50  0000 L CNN
F 1 "10k" H 6470 7955 50  0000 L CNN
F 2 "" V 6330 8000 50  0001 C CNN
F 3 "~" H 6400 8000 50  0001 C CNN
	1    6400 8000
	1    0    0    -1  
$EndComp
Wire Wire Line
	9400 7150 9250 7150
Wire Wire Line
	9250 7150 9250 7650
Wire Wire Line
	9250 7650 6400 7650
Wire Wire Line
	3500 7650 3500 7150
Wire Wire Line
	3500 7150 3600 7150
Wire Wire Line
	6500 7150 6400 7150
Wire Wire Line
	6400 7150 6400 7650
Connection ~ 6400 7650
Wire Wire Line
	6300 7850 6400 7850
Connection ~ 6400 7850
Wire Wire Line
	6400 7850 7200 7850
$Comp
L power:+5V #PWR0116
U 1 1 5ECB530E
P 7200 7850
F 0 "#PWR0116" H 7200 7700 50  0001 C CNN
F 1 "+5V" V 7215 7978 50  0000 L CNN
F 2 "" H 7200 7850 50  0001 C CNN
F 3 "" H 7200 7850 50  0001 C CNN
	1    7200 7850
	0    1    1    0   
$EndComp
Wire Wire Line
	6300 8150 6200 8150
$Comp
L Device:R R20
U 1 1 5ECDA637
P 5850 8600
F 0 "R20" H 5920 8646 50  0000 L CNN
F 1 "10k" H 5920 8555 50  0000 L CNN
F 2 "" V 5780 8600 50  0001 C CNN
F 3 "~" H 5850 8600 50  0001 C CNN
	1    5850 8600
	0    -1   -1   0   
$EndComp
$Comp
L Transistor_BJT:BC547 Q2
U 1 1 5ECECDAF
P 5500 8600
F 0 "Q2" H 5691 8554 50  0000 L CNN
F 1 "BC547" H 5691 8645 50  0000 L CNN
F 2 "Package_TO_SOT_THT:TO-92_Inline" H 5700 8525 50  0001 L CIN
F 3 "http://www.fairchildsemi.com/ds/BC/BC547.pdf" H 5500 8600 50  0001 L CNN
	1    5500 8600
	-1   0    0    -1  
$EndComp
Connection ~ 6300 7850
Wire Wire Line
	3500 7650 6200 7650
Wire Wire Line
	6200 7650 6200 8150
Connection ~ 6200 7650
Wire Wire Line
	6200 7650 6400 7650
Wire Wire Line
	6500 7250 6500 7750
Wire Wire Line
	6500 7750 9400 7750
Wire Wire Line
	9400 7750 9400 7250
Wire Wire Line
	3600 7250 3600 7750
Wire Wire Line
	6300 8150 6300 8250
Connection ~ 6300 8150
Wire Wire Line
	6400 8150 6400 8250
$Comp
L Transistor_BJT:BC547 Q1
U 1 1 5EDFFB48
P 4650 8600
F 0 "Q1" H 4841 8554 50  0000 L CNN
F 1 "BC547" H 4841 8645 50  0000 L CNN
F 2 "Package_TO_SOT_THT:TO-92_Inline" H 4850 8525 50  0001 L CIN
F 3 "http://www.fairchildsemi.com/ds/BC/BC547.pdf" H 4650 8600 50  0001 L CNN
	1    4650 8600
	-1   0    0    -1  
$EndComp
$Comp
L Device:R R13
U 1 1 5EE503D5
P 5000 8600
F 0 "R13" H 5070 8646 50  0000 L CNN
F 1 "10k" H 5070 8555 50  0000 L CNN
F 2 "" V 4930 8600 50  0001 C CNN
F 3 "~" H 5000 8600 50  0001 C CNN
	1    5000 8600
	0    -1   -1   0   
$EndComp
Wire Wire Line
	700  7150 550  7150
Wire Wire Line
	550  7150 550  8250
$Comp
L Device:R R14
U 1 1 5EF63F27
P 5400 8100
F 0 "R14" H 5470 8146 50  0000 L CNN
F 1 "10k" H 5470 8055 50  0000 L CNN
F 2 "" V 5330 8100 50  0001 C CNN
F 3 "~" H 5400 8100 50  0001 C CNN
	1    5400 8100
	1    0    0    -1  
$EndComp
$Comp
L Device:R R12
U 1 1 5EF7A040
P 4550 8100
F 0 "R12" H 4620 8146 50  0000 L CNN
F 1 "10k" H 4620 8055 50  0000 L CNN
F 2 "" V 4480 8100 50  0001 C CNN
F 3 "~" H 4550 8100 50  0001 C CNN
	1    4550 8100
	1    0    0    -1  
$EndComp
Connection ~ 6500 7750
Wire Wire Line
	3600 7750 5300 7750
Wire Wire Line
	4550 7850 4550 7950
Wire Wire Line
	4550 7850 5400 7850
Wire Wire Line
	5400 7850 5400 7950
Connection ~ 5400 7850
Wire Wire Line
	5400 7850 6300 7850
Connection ~ 6400 8250
Wire Wire Line
	4550 8250 4550 8300
Wire Wire Line
	5400 8250 5400 8300
Wire Wire Line
	550  8250 5150 8250
Wire Wire Line
	4550 8800 4550 8850
Wire Wire Line
	4550 8850 5400 8850
Connection ~ 6300 8850
Wire Wire Line
	5400 8800 5400 8850
Connection ~ 5400 8850
Wire Wire Line
	5400 8850 6300 8850
Wire Wire Line
	6200 8150 6000 8150
Wire Wire Line
	6000 8150 6000 8600
Connection ~ 6200 8150
Wire Wire Line
	5400 8300 5300 8300
Wire Wire Line
	5300 8300 5300 7750
Connection ~ 5400 8300
Wire Wire Line
	5400 8300 5400 8400
Connection ~ 5300 7750
Wire Wire Line
	5300 7750 6500 7750
Wire Wire Line
	5150 8250 5150 8600
Connection ~ 5150 8250
Wire Wire Line
	5150 8250 6400 8250
Wire Wire Line
	4550 8300 700  8300
Wire Wire Line
	700  7250 700  8300
Connection ~ 4550 8300
Wire Wire Line
	4550 8300 4550 8400
Wire Wire Line
	5700 3750 4900 3750
Wire Wire Line
	4900 3750 4900 3650
Wire Wire Line
	4900 3650 4500 3650
Wire Wire Line
	4500 3650 4500 3850
Wire Wire Line
	4500 3850 3150 3850
Wire Wire Line
	2950 3850 2950 2850
Wire Wire Line
	2950 2850 3100 2850
Wire Wire Line
	3100 2950 3000 2950
Wire Wire Line
	3000 2950 3000 1600
Wire Wire Line
	3000 1600 5600 1600
Wire Wire Line
	5600 1600 5600 1450
$Comp
L Device:R R7
U 1 1 5E870AC6
P 3000 4550
F 0 "R7" H 3070 4596 50  0000 L CNN
F 1 "10k" H 3070 4505 50  0000 L CNN
F 2 "" V 2930 4550 50  0001 C CNN
F 3 "~" H 3000 4550 50  0001 C CNN
	1    3000 4550
	1    0    0    -1  
$EndComp
$Comp
L power:+5V #PWR0117
U 1 1 5E889513
P 3000 4700
F 0 "#PWR0117" H 3000 4550 50  0001 C CNN
F 1 "+5V" H 3015 4873 50  0000 C CNN
F 2 "" H 3000 4700 50  0001 C CNN
F 3 "" H 3000 4700 50  0001 C CNN
	1    3000 4700
	-1   0    0    1   
$EndComp
Wire Wire Line
	3000 4400 3000 3950
Wire Wire Line
	3000 3150 3100 3150
Wire Wire Line
	3000 3950 5050 3950
Wire Wire Line
	5050 3950 5050 3350
Connection ~ 3000 3950
Wire Wire Line
	3000 3950 3000 3150
Connection ~ 5050 3350
Wire Wire Line
	5050 3350 4900 3350
$Comp
L Device:R R6
U 1 1 5E8D71DB
P 2850 4550
F 0 "R6" H 2920 4596 50  0000 L CNN
F 1 "10k" H 2920 4505 50  0000 L CNN
F 2 "" V 2780 4550 50  0001 C CNN
F 3 "~" H 2850 4550 50  0001 C CNN
	1    2850 4550
	1    0    0    -1  
$EndComp
Wire Wire Line
	2850 4700 3000 4700
Connection ~ 3000 4700
Wire Wire Line
	2850 4400 2850 4000
Wire Wire Line
	2850 3250 3100 3250
Wire Wire Line
	2850 4000 5100 4000
Wire Wire Line
	5100 4000 5100 3250
Connection ~ 2850 4000
Wire Wire Line
	2850 4000 2850 3250
Connection ~ 5100 3250
Wire Wire Line
	5100 3250 4900 3250
$Comp
L Device:R R8
U 1 1 5E93F072
P 3150 4550
F 0 "R8" H 3220 4596 50  0000 L CNN
F 1 "10k" H 3220 4505 50  0000 L CNN
F 2 "" V 3080 4550 50  0001 C CNN
F 3 "~" H 3150 4550 50  0001 C CNN
	1    3150 4550
	1    0    0    -1  
$EndComp
Wire Wire Line
	3150 4700 3000 4700
Wire Wire Line
	3150 4400 3150 3850
Connection ~ 3150 3850
Wire Wire Line
	3150 3850 2950 3850
$Comp
L 74xx:74LS138 U12
U 1 1 5E98F7DD
P 9050 4950
F 0 "U12" H 9050 5731 50  0000 C CNN
F 1 "74LS138" H 9050 5640 50  0000 C CNN
F 2 "" H 9050 4950 50  0001 C CNN
F 3 "http://www.ti.com/lit/gpn/sn74LS138" H 9050 4950 50  0001 C CNN
	1    9050 4950
	1    0    0    -1  
$EndComp
$Comp
L power:+5V #PWR0119
U 1 1 5E994014
P 9050 4350
F 0 "#PWR0119" H 9050 4200 50  0001 C CNN
F 1 "+5V" H 9065 4523 50  0000 C CNN
F 2 "" H 9050 4350 50  0001 C CNN
F 3 "" H 9050 4350 50  0001 C CNN
	1    9050 4350
	1    0    0    -1  
$EndComp
Wire Wire Line
	9550 4650 9550 3550
Wire Wire Line
	8250 3550 8250 3250
Wire Wire Line
	9550 3550 8250 3550
Wire Wire Line
	9700 3250 9700 4750
Wire Wire Line
	9700 4750 9550 4750
Wire Wire Line
	8350 4750 8550 4750
Wire Wire Line
	8550 4850 8350 4850
Wire Wire Line
	8350 4850 8350 4750
Wire Wire Line
	5200 3350 5200 4450
Wire Wire Line
	5200 4450 7450 4450
Wire Wire Line
	7450 4450 7450 5250
Wire Wire Line
	7450 5250 8550 5250
Connection ~ 5200 3350
Wire Wire Line
	5200 3350 5050 3350
Wire Wire Line
	9050 4350 8450 4350
Wire Wire Line
	8450 4350 8450 5150
Wire Wire Line
	8450 5150 8550 5150
Connection ~ 9050 4350
$Comp
L Device:R R18
U 1 1 5EAB855B
P 5550 2650
F 0 "R18" H 5620 2696 50  0000 L CNN
F 1 "10k" H 5620 2605 50  0000 L CNN
F 2 "" V 5480 2650 50  0001 C CNN
F 3 "~" H 5550 2650 50  0001 C CNN
	1    5550 2650
	0    -1   -1   0   
$EndComp
Wire Wire Line
	5400 2150 5400 2650
Connection ~ 5400 2150
Connection ~ 7450 1150
Wire Bus Line
	7450 1150 7950 1150
Wire Bus Line
	7450 1150 7450 850 
Wire Bus Line
	4550 850  7450 850 
Entry Wire Line
	7350 1450 7450 1550
Wire Wire Line
	7100 1450 7350 1450
Wire Wire Line
	7100 1550 7350 1550
Wire Wire Line
	7100 1650 7350 1650
Wire Wire Line
	7100 1750 7350 1750
Wire Wire Line
	7100 1850 7350 1850
Wire Wire Line
	7100 1950 7350 1950
Wire Wire Line
	7100 2050 7350 2050
Wire Wire Line
	7100 2150 7350 2150
Wire Wire Line
	7100 2250 7350 2250
Wire Wire Line
	7100 2350 7350 2350
Wire Wire Line
	7100 2450 7350 2450
Wire Wire Line
	7100 2550 7350 2550
Wire Wire Line
	7100 2650 7350 2650
Wire Wire Line
	7100 2750 7350 2750
Wire Wire Line
	7100 2850 7350 2850
Wire Wire Line
	7100 2950 7350 2950
NoConn ~ 9550 4850
NoConn ~ 9550 4950
NoConn ~ 9550 5050
NoConn ~ 9550 5150
NoConn ~ 9550 5250
NoConn ~ 9550 5350
NoConn ~ 3600 3750
NoConn ~ 1400 1950
NoConn ~ 4100 2150
NoConn ~ 4100 2250
NoConn ~ 4100 2550
NoConn ~ 3500 1750
NoConn ~ 3700 1750
NoConn ~ 5700 2550
Text Label 7200 1450 2    50   ~ 0
a0
Connection ~ 7950 1150
Wire Bus Line
	7950 1150 9400 1150
Wire Wire Line
	8050 1450 8250 1450
Wire Wire Line
	8050 1550 8250 1550
Wire Wire Line
	8050 1650 8250 1650
Wire Wire Line
	8050 1750 8250 1750
Wire Wire Line
	8050 1850 8250 1850
Wire Wire Line
	8050 1950 8250 1950
Wire Wire Line
	8050 2050 8250 2050
Wire Wire Line
	8050 2150 8250 2150
Wire Wire Line
	8050 2250 8250 2250
Wire Wire Line
	8050 2350 8250 2350
Wire Wire Line
	8050 2450 8250 2450
Wire Wire Line
	8050 2550 8250 2550
Wire Wire Line
	8050 2650 8250 2650
Wire Wire Line
	8050 2750 8250 2750
Wire Wire Line
	8050 2850 8250 2850
Text Label 8150 1450 2    50   ~ 0
a0
Text Label 7200 1550 2    50   ~ 0
a1
Text Label 8150 1550 2    50   ~ 0
a1
Text Label 8150 1650 2    50   ~ 0
a2
Text Label 8150 1750 2    50   ~ 0
a3
Text Label 8150 1850 2    50   ~ 0
a4
Text Label 8150 1950 2    50   ~ 0
a5
Text Label 8150 2050 2    50   ~ 0
a6
Text Label 8150 2150 2    50   ~ 0
a7
Text Label 8150 2250 2    50   ~ 0
a8
Text Label 8150 2350 2    50   ~ 0
a9
Text Label 8150 2450 2    50   ~ 0
a10
Text Label 8150 2550 2    50   ~ 0
a11
Text Label 8150 2650 2    50   ~ 0
a12
Text Label 8150 2750 2    50   ~ 0
a13
Text Label 8150 2850 2    50   ~ 0
a14
Text Label 7200 1650 2    50   ~ 0
a2
Text Label 7200 1750 2    50   ~ 0
a3
Text Label 7200 1850 2    50   ~ 0
a4
Text Label 7200 1950 2    50   ~ 0
a5
Text Label 7200 2050 2    50   ~ 0
a6
Text Label 7200 2150 2    50   ~ 0
a7
Text Label 7200 2250 2    50   ~ 0
a8
Text Label 7200 2350 2    50   ~ 0
a9
Text Label 7200 2450 2    50   ~ 0
a10
Text Label 7200 2550 2    50   ~ 0
a11
Text Label 7200 2650 2    50   ~ 0
a12
Text Label 7200 2750 2    50   ~ 0
a13
Text Label 7200 2850 2    50   ~ 0
a14
Text Label 7200 2950 2    50   ~ 0
a15
Entry Wire Line
	9400 1950 9500 2050
Entry Wire Line
	9400 1850 9500 1950
Entry Wire Line
	9400 1750 9500 1850
Entry Wire Line
	9400 1650 9500 1750
Entry Wire Line
	9400 1550 9500 1650
Entry Wire Line
	9400 1450 9500 1550
Entry Wire Line
	9400 1350 9500 1450
Entry Wire Line
	9400 2750 9500 2850
Entry Wire Line
	9400 2650 9500 2750
Entry Wire Line
	9400 2550 9500 2650
Entry Wire Line
	9400 2450 9500 2550
Entry Wire Line
	9400 2350 9500 2450
Entry Wire Line
	9400 2250 9500 2350
Entry Wire Line
	9400 2150 9500 2250
Entry Wire Line
	9400 2050 9500 2150
Wire Wire Line
	9500 1450 9700 1450
Wire Wire Line
	9500 1550 9700 1550
Wire Wire Line
	9500 1650 9700 1650
Wire Wire Line
	9500 1750 9700 1750
Wire Wire Line
	9500 1850 9700 1850
Wire Wire Line
	9500 1950 9700 1950
Wire Wire Line
	9500 2050 9700 2050
Wire Wire Line
	9500 2150 9700 2150
Wire Wire Line
	9500 2250 9700 2250
Wire Wire Line
	9500 2350 9700 2350
Wire Wire Line
	9500 2450 9700 2450
Wire Wire Line
	9500 2550 9700 2550
Wire Wire Line
	9500 2650 9700 2650
Wire Wire Line
	9500 2750 9700 2750
Wire Wire Line
	9500 2850 9700 2850
Text Label 9600 1450 2    50   ~ 0
a0
Text Label 9600 1550 2    50   ~ 0
a1
Text Label 9600 1650 2    50   ~ 0
a2
Text Label 9600 1750 2    50   ~ 0
a3
Text Label 9600 1850 2    50   ~ 0
a4
Text Label 9600 1950 2    50   ~ 0
a5
Text Label 9600 2050 2    50   ~ 0
a6
Text Label 9600 2150 2    50   ~ 0
a7
Text Label 9600 2250 2    50   ~ 0
a8
Text Label 9600 2350 2    50   ~ 0
a9
Text Label 9600 2450 2    50   ~ 0
a10
Text Label 9600 2550 2    50   ~ 0
a11
Text Label 9600 2650 2    50   ~ 0
a12
Text Label 9600 2750 2    50   ~ 0
a13
Text Label 9600 2850 2    50   ~ 0
a14
Connection ~ 9350 1050
Wire Wire Line
	9250 2150 9050 2150
Wire Wire Line
	9050 2050 9250 2050
Wire Wire Line
	9250 1950 9050 1950
Wire Wire Line
	9050 1850 9250 1850
Wire Wire Line
	9250 1750 9050 1750
Wire Wire Line
	9050 1650 9250 1650
Wire Wire Line
	9250 1550 9050 1550
Wire Wire Line
	9050 1450 9250 1450
Text Label 9200 1450 2    50   ~ 0
d0
Text Label 9200 1550 2    50   ~ 0
d1
Text Label 9200 1650 2    50   ~ 0
d2
Text Label 9200 1750 2    50   ~ 0
d3
Text Label 9200 1850 2    50   ~ 0
d4
Text Label 9200 1950 2    50   ~ 0
d5
Text Label 9200 2050 2    50   ~ 0
d6
Text Label 9200 2150 2    50   ~ 0
d7
Wire Bus Line
	9350 1050 10800 1050
Wire Wire Line
	10700 2150 10500 2150
Wire Wire Line
	10500 2050 10700 2050
Wire Wire Line
	10700 1950 10500 1950
Wire Wire Line
	10500 1850 10700 1850
Wire Wire Line
	10700 1750 10500 1750
Wire Wire Line
	10500 1650 10700 1650
Wire Wire Line
	10700 1550 10500 1550
Wire Wire Line
	10500 1450 10700 1450
Text Label 10650 1450 2    50   ~ 0
d0
Text Label 10650 1550 2    50   ~ 0
d1
Text Label 10650 1650 2    50   ~ 0
d2
Text Label 10650 1750 2    50   ~ 0
d3
Text Label 10650 1850 2    50   ~ 0
d4
Text Label 10650 1950 2    50   ~ 0
d5
Text Label 10650 2050 2    50   ~ 0
d6
Text Label 10650 2150 2    50   ~ 0
d7
Entry Wire Line
	7300 3850 7400 3950
Entry Wire Line
	7300 3750 7400 3850
Entry Wire Line
	7300 3650 7400 3750
Entry Wire Line
	7300 3550 7400 3650
Entry Wire Line
	7300 3450 7400 3550
Entry Wire Line
	7300 3350 7400 3450
Entry Wire Line
	7300 3250 7400 3350
Entry Wire Line
	7300 3150 7400 3250
Wire Wire Line
	7300 3850 7100 3850
Wire Wire Line
	7100 3750 7300 3750
Wire Wire Line
	7300 3650 7100 3650
Wire Wire Line
	7100 3550 7300 3550
Wire Wire Line
	7300 3450 7100 3450
Wire Wire Line
	7100 3350 7300 3350
Wire Wire Line
	7300 3250 7100 3250
Wire Wire Line
	7100 3150 7300 3150
Text Label 7250 3150 2    50   ~ 0
d0
Text Label 7250 3250 2    50   ~ 0
d1
Text Label 7250 3350 2    50   ~ 0
d2
Text Label 7250 3450 2    50   ~ 0
d3
Text Label 7250 3550 2    50   ~ 0
d4
Text Label 7250 3650 2    50   ~ 0
d5
Text Label 7250 3750 2    50   ~ 0
d6
Text Label 7250 3850 2    50   ~ 0
d7
Wire Bus Line
	7550 1050 7550 3150
Wire Bus Line
	7550 3150 7400 3150
Wire Bus Line
	7550 1050 9350 1050
Wire Bus Line
	7550 3150 7550 5850
Connection ~ 7550 3150
NoConn ~ 3100 2150
NoConn ~ 3100 2250
NoConn ~ 2500 6150
NoConn ~ 5400 6150
NoConn ~ 8300 6150
NoConn ~ 11200 6150
Wire Bus Line
	500  5700 3300 5700
Wire Wire Line
	600  6250 700  6250
Wire Wire Line
	600  6350 700  6350
Wire Wire Line
	600  6450 700  6450
Wire Wire Line
	600  6550 700  6550
Wire Wire Line
	600  6650 700  6650
Wire Wire Line
	600  6750 700  6750
Wire Wire Line
	600  6850 700  6850
Wire Wire Line
	600  6950 700  6950
Text Label 5000 2450 0    50   ~ 0
m1
Text Label 5000 2750 0    50   ~ 0
halt
Text Label 5000 3150 0    50   ~ 0
rd
Text Label 5000 3250 0    50   ~ 0
wr
Text Label 5000 3350 0    50   ~ 0
mreq
Text Label 5000 3450 0    50   ~ 0
ioreq
Text Label 5000 3850 0    50   ~ 0
busack
Text Label 5000 2250 0    50   ~ 0
clk
Text Label 600  6250 0    50   ~ 0
clk
Text Label 600  6350 0    50   ~ 0
m1
Text Label 600  6450 0    50   ~ 0
halt
Text Label 600  6550 0    50   ~ 0
mreq
Text Label 600  6650 0    50   ~ 0
ioreq
Text Label 600  6750 0    50   ~ 0
busack
Text Label 600  6850 0    50   ~ 0
wr
Text Label 600  6950 0    50   ~ 0
rd
Wire Wire Line
	3500 6250 3600 6250
Wire Wire Line
	3500 6350 3600 6350
Wire Wire Line
	3500 6450 3600 6450
Wire Wire Line
	3500 6550 3600 6550
Wire Wire Line
	3500 6650 3600 6650
Wire Wire Line
	3500 6750 3600 6750
Wire Wire Line
	3500 6850 3600 6850
Wire Wire Line
	3500 6950 3600 6950
Wire Bus Line
	3400 4600 4550 4600
Text Label 3500 6250 0    50   ~ 0
a0
Text Label 3500 6350 0    50   ~ 0
a1
Text Label 3500 6450 0    50   ~ 0
a2
Text Label 3500 6550 0    50   ~ 0
a3
Text Label 3500 6650 0    50   ~ 0
a4
Text Label 3500 6750 0    50   ~ 0
a5
Text Label 3500 6850 0    50   ~ 0
a6
Text Label 3500 6950 0    50   ~ 0
a7
Wire Wire Line
	6500 6250 6400 6250
Wire Wire Line
	6500 6350 6400 6350
Wire Wire Line
	6500 6450 6400 6450
Wire Wire Line
	6500 6550 6400 6550
Wire Wire Line
	6400 6650 6500 6650
Wire Wire Line
	6500 6750 6400 6750
Wire Wire Line
	6400 6850 6500 6850
Wire Wire Line
	6500 6950 6400 6950
Text Label 6400 6250 0    50   ~ 0
a8
Text Label 6400 6350 0    50   ~ 0
a9
Text Label 6400 6450 0    50   ~ 0
a10
Text Label 6400 6550 0    50   ~ 0
a11
Text Label 6400 6650 0    50   ~ 0
a12
Text Label 6400 6750 0    50   ~ 0
a13
Text Label 6400 6850 0    50   ~ 0
a14
Text Label 6400 6950 0    50   ~ 0
a15
Wire Wire Line
	9400 6250 9300 6250
Wire Wire Line
	9300 6350 9400 6350
Wire Wire Line
	9400 6450 9300 6450
Wire Wire Line
	9300 6550 9400 6550
Wire Wire Line
	9400 6650 9300 6650
Wire Wire Line
	9300 6750 9400 6750
Wire Wire Line
	9400 6850 9300 6850
Wire Wire Line
	9300 6950 9400 6950
Text Label 9300 6250 0    50   ~ 0
d0
Text Label 9300 6350 0    50   ~ 0
d1
Text Label 9300 6450 0    50   ~ 0
d2
Text Label 9300 6550 0    50   ~ 0
d3
Text Label 9300 6650 0    50   ~ 0
d4
Text Label 9300 6750 0    50   ~ 0
d5
Text Label 9300 6850 0    50   ~ 0
d6
Text Label 9300 6950 0    50   ~ 0
d7
Entry Wire Line
	6300 4600 6400 4700
Wire Wire Line
	7300 4650 7300 4700
Wire Wire Line
	7300 4700 6400 4700
Wire Wire Line
	7300 4650 8550 4650
Text Label 8250 4650 0    50   ~ 0
a15
Wire Wire Line
	9050 5650 8350 5650
Wire Wire Line
	8350 5650 8350 5350
Connection ~ 8350 4850
NoConn ~ 6500 8250
NoConn ~ 6600 8250
NoConn ~ 6700 8250
NoConn ~ 6800 8250
NoConn ~ 6900 8250
NoConn ~ 7000 8250
NoConn ~ 7000 8850
NoConn ~ 6900 8850
NoConn ~ 6800 8850
NoConn ~ 6700 8850
NoConn ~ 6500 8850
NoConn ~ 6600 8850
Wire Wire Line
	1300 3600 1400 3600
Wire Wire Line
	1300 3700 1400 3700
Wire Wire Line
	1300 3800 1400 3800
Wire Wire Line
	1300 3900 1400 3900
Wire Wire Line
	1300 4000 1400 4000
Wire Wire Line
	1300 4100 1400 4100
Wire Wire Line
	1300 4200 1400 4200
Wire Wire Line
	1300 4300 1400 4300
Wire Wire Line
	1300 2150 1400 2150
Wire Wire Line
	1300 2250 1400 2250
Wire Wire Line
	1300 2350 1400 2350
Wire Wire Line
	1300 2450 1400 2450
Wire Wire Line
	1300 2550 1400 2550
Wire Wire Line
	1300 2650 1400 2650
Wire Wire Line
	1300 2750 1400 2750
Wire Wire Line
	1300 2850 1400 2850
Wire Bus Line
	1200 850  4550 850 
Text Label 1300 2850 0    50   ~ 0
a8
Text Label 1300 2750 0    50   ~ 0
a9
Text Label 1300 2650 0    50   ~ 0
a10
Text Label 1300 2550 0    50   ~ 0
a11
Text Label 1300 2450 0    50   ~ 0
a12
Text Label 1300 2350 0    50   ~ 0
a13
Text Label 1300 2250 0    50   ~ 0
a14
Text Label 1300 2150 0    50   ~ 0
a15
Text Label 1300 4300 0    50   ~ 0
a0
Text Label 1300 4200 0    50   ~ 0
a1
Text Label 1300 4100 0    50   ~ 0
a2
Text Label 1300 4000 0    50   ~ 0
a3
Text Label 1300 3900 0    50   ~ 0
a4
Text Label 1300 3800 0    50   ~ 0
a5
Text Label 1300 3700 0    50   ~ 0
a6
Text Label 1300 3600 0    50   ~ 0
a7
NoConn ~ 3100 3450
NoConn ~ 3100 3350
Wire Wire Line
	5050 1000 5600 1000
Wire Wire Line
	5600 1150 5600 1000
Connection ~ 5600 1000
Wire Wire Line
	5600 1000 6400 1000
Entry Wire Line
	4250 3250 4350 3350
Entry Wire Line
	4250 3150 4350 3250
Entry Wire Line
	4250 3050 4350 3150
Entry Wire Line
	4250 2950 4350 3050
Entry Wire Line
	4250 2850 4350 2950
Entry Wire Line
	4250 2750 4350 2850
Wire Wire Line
	4100 2750 4250 2750
Wire Wire Line
	4100 2850 4250 2850
Wire Wire Line
	4250 2950 4100 2950
Wire Wire Line
	4100 3050 4250 3050
Wire Wire Line
	4250 3150 4100 3150
Wire Wire Line
	4100 3250 4250 3250
Wire Bus Line
	4350 1050 7550 1050
Connection ~ 7550 1050
Text Label 4150 2750 0    50   ~ 0
d0
Text Label 4150 2850 0    50   ~ 0
d1
Text Label 4150 2950 0    50   ~ 0
d2
Text Label 4150 3050 0    50   ~ 0
d3
Text Label 4150 3150 0    50   ~ 0
d4
Text Label 4150 3250 0    50   ~ 0
d5
Text Label 4100 1650 0    50   ~ 0
d6
Text Label 4450 2850 0    50   ~ 0
d7
$Comp
L power:Earth #PWR0120
U 1 1 5FDCF2FC
P 10800 7550
F 0 "#PWR0120" H 10800 7300 50  0001 C CNN
F 1 "Earth" H 10800 7400 50  0001 C CNN
F 2 "" H 10800 7550 50  0001 C CNN
F 3 "~" H 10800 7550 50  0001 C CNN
	1    10800 7550
	1    0    0    -1  
$EndComp
Connection ~ 10800 7550
$Comp
L Device:R R11
U 1 1 5FDD00F4
P 5400 3000
F 0 "R11" H 5470 3046 50  0000 L CNN
F 1 "10k" H 5470 2955 50  0000 L CNN
F 2 "" V 5330 3000 50  0001 C CNN
F 3 "~" H 5400 3000 50  0001 C CNN
	1    5400 3000
	-1   0    0    1   
$EndComp
Connection ~ 5400 3150
Wire Wire Line
	5400 3150 4900 3150
Wire Wire Line
	5400 2850 5400 2800
Connection ~ 5400 2650
Wire Wire Line
	8550 5350 8350 5350
Connection ~ 8350 5350
Wire Wire Line
	8350 5350 8350 4850
$Comp
L power:Earth #PWR0118
U 1 1 5FF5C615
P 9050 5650
F 0 "#PWR0118" H 9050 5400 50  0001 C CNN
F 1 "Earth" H 9050 5500 50  0001 C CNN
F 2 "" H 9050 5650 50  0001 C CNN
F 3 "~" H 9050 5650 50  0001 C CNN
	1    9050 5650
	1    0    0    -1  
$EndComp
Connection ~ 9050 5650
$Comp
L Device:R R23
U 1 1 5FF785A0
P 5550 2950
F 0 "R23" H 5620 2996 50  0000 L CNN
F 1 "10k" H 5620 2905 50  0000 L CNN
F 2 "" V 5480 2950 50  0001 C CNN
F 3 "~" H 5550 2950 50  0001 C CNN
	1    5550 2950
	-1   0    0    1   
$EndComp
Wire Wire Line
	5550 3450 5550 3100
Connection ~ 5550 3450
Wire Wire Line
	5550 3450 4900 3450
Wire Wire Line
	5550 2800 5400 2800
Connection ~ 5400 2800
Wire Wire Line
	5400 2800 5400 2650
Wire Wire Line
	2850 1500 2850 1700
Connection ~ 2850 1500
Wire Wire Line
	4900 3850 5000 3850
Wire Wire Line
	4100 3350 4250 3350
Wire Wire Line
	4250 3350 4250 3600
Wire Wire Line
	4250 3600 5000 3600
Wire Wire Line
	5000 3600 5000 3850
Connection ~ 5000 3850
Wire Wire Line
	5000 3850 5700 3850
Wire Wire Line
	4700 3450 4700 1700
Wire Wire Line
	2850 1700 4700 1700
Wire Wire Line
	4100 3450 4700 3450
Wire Wire Line
	3100 3050 2900 3050
Wire Wire Line
	2900 3050 2900 3900
Wire Wire Line
	2900 3900 4600 3900
Entry Wire Line
	4350 2750 4450 2850
Wire Wire Line
	4600 2850 4450 2850
Wire Wire Line
	4600 2850 4600 3900
Entry Wire Line
	4250 1650 4350 1750
Wire Wire Line
	4250 1650 2950 1650
Wire Wire Line
	2950 1650 2950 2350
Wire Wire Line
	2950 2350 3100 2350
Wire Bus Line
	4350 1050 4350 3350
Wire Bus Line
	7400 3150 7400 3950
Wire Bus Line
	4800 2100 4800 4350
Wire Bus Line
	500  5700 500  6850
Wire Bus Line
	3400 4600 3400 6850
Wire Bus Line
	6300 4600 6300 6850
Wire Bus Line
	9200 5850 9200 6850
Wire Bus Line
	10800 1050 10800 2250
Wire Bus Line
	9350 1050 9350 2250
Wire Bus Line
	7450 1150 7450 3050
Wire Bus Line
	7950 1150 7950 2750
Wire Bus Line
	9400 1150 9400 2750
Wire Bus Line
	1200 850  1200 4200
$EndSCHEMATC
